tools/udconvert.vcd
$date today $end
$timescale 1 ps $end
$scope module updowncounter_tb $end
$var integer 8 ! clk $end
$var integer 8 " counter $end
$var integer 8 / reset $end
$var integer 8 0 up_down $end
$scope module inst $end
$var integer 8 # clk $end
$var integer 8 $ counter $end
$var integer 8 % counter_up_down $end
$var integer 8 * reset $end
$var integer 8 + up_down $end
$scope module inst $end
$var integer 8 & clk $end
$var integer 8 ' counter_up_down $end
$var integer 8 ( reset $end
$var integer 8 ) up_down $end
$upscope $end
$upscope $end
$scope module inst1 $end
$var integer 8 , clk $end
$upscope $end
$scope module inst2 $end
$var integer 8 - reset $end
$var integer 8 . up_down $end
$upscope $end
$upscope $end
$enddefinitions $end
#0
$dumpvars
b0 !
b0 "
b0 #
b0 $
b0 %
b0 &
b0 '
b1 (
b0 )
b1 *
b0 +
b0 ,
b1 -
b0 .
b1 /
b0 0
$end
#5000
b1 !
b1 #
b1 &
b1 ,
#10000
b0 !
b0 #
b0 &
b0 ,
#15000
b1 !
b1 #
b1 &
b1 ,
#20000
b0 !
b0 #
b0 &
b0 (
b0 *
b0 ,
b0 -
b0 /
#25000
b1 !
b1 #
b1 &
b1 ,
b1 %
b1 '
b1 "
b1 $
#30000
b0 !
b0 #
b0 &
b0 ,
#35000
b1 !
b1 #
b1 &
b1 ,
b10 %
b10 '
b10 "
b10 $
#40000
b0 !
b0 #
b0 &
b0 ,
#45000
b1 !
b1 #
b1 &
b1 ,
b11 %
b11 '
b11 "
b11 $
#50000
b0 !
b0 #
b0 &
b0 ,
#55000
b1 !
b1 #
b1 &
b1 ,
b100 %
b100 '
b100 "
b100 $
#60000
b0 !
b0 #
b0 &
b0 ,
#65000
b1 !
b1 #
b1 &
b1 ,
b101 %
b101 '
b101 "
b101 $
#70000
b0 !
b0 #
b0 &
b0 ,
#75000
b1 !
b1 #
b1 &
b1 ,
b110 %
b110 '
b110 "
b110 $
#80000
b0 !
b0 #
b0 &
b0 ,
#85000
b1 !
b1 #
b1 &
b1 ,
b111 %
b111 '
b111 "
b111 $
#90000
b0 !
b0 #
b0 &
b0 ,
#95000
b1 !
b1 #
b1 &
b1 ,
b1000 %
b1000 '
b1000 "
b1000 $
#100000
b0 !
b0 #
b0 &
b0 ,
#105000
b1 !
b1 #
b1 &
b1 ,
b1001 %
b1001 '
b1001 "
b1001 $
#110000
b0 !
b0 #
b0 &
b0 ,
#115000
b1 !
b1 #
b1 &
b1 ,
b1010 %
b1010 '
b1010 "
b1010 $
#120000
b0 !
b0 #
b0 &
b0 ,
#125000
b1 !
b1 #
b1 &
b1 ,
b1011 %
b1011 '
b1011 "
b1011 $
#130000
b0 !
b0 #
b0 &
b0 ,
#135000
b1 !
b1 #
b1 &
b1 ,
b1100 %
b1100 '
b1100 "
b1100 $
#140000
b0 !
b0 #
b0 &
b0 ,
#145000
b1 !
b1 #
b1 &
b1 ,
b1101 %
b1101 '
b1101 "
b1101 $
#150000
b0 !
b0 #
b0 &
b0 ,
#155000
b1 !
b1 #
b1 &
b1 ,
b1110 %
b1110 '
b1110 "
b1110 $
#160000
b0 !
b0 #
b0 &
b0 ,
#165000
b1 !
b1 #
b1 &
b1 ,
b1111 %
b1111 '
b1111 "
b1111 $
#170000
b0 !
b0 #
b0 &
b0 ,
#175000
b1 !
b1 #
b1 &
b1 ,
b0 %
b0 '
b0 "
b0 $
#180000
b0 !
b0 #
b0 &
b0 ,
#185000
b1 !
b1 #
b1 &
b1 ,
b1 %
b1 '
b1 "
b1 $
#190000
b0 !
b0 #
b0 &
b0 ,
#195000
b1 !
b1 #
b1 &
b1 ,
b10 %
b10 '
b10 "
b10 $
#200000
b0 !
b0 #
b0 &
b0 ,
#205000
b1 !
b1 #
b1 &
b1 ,
b11 %
b11 '
b11 "
b11 $
#210000
b0 !
b0 #
b0 &
b0 ,
#215000
b1 !
b1 #
b1 &
b1 ,
b100 %
b100 '
b100 "
b100 $
#220000
b0 !
b0 #
b0 &
b1 )
b1 +
b0 ,
b1 .
b1 0
#225000
b1 !
b1 #
b1 &
b1 ,
b11 %
b11 '
b11 "
b11 $
#230000
b0 !
b0 #
b0 &
b0 ,
#235000
b1 !
b1 #
b1 &
b1 ,
b10 %
b10 '
b10 "
b10 $
#240000
b0 !
b0 #
b0 &
b0 ,
#245000
b1 !
b1 #
b1 &
b1 ,
b1 %
b1 '
b1 "
b1 $
#250000
b0 !
b0 #
b0 &
b0 ,
#255000
b1 !
b1 #
b1 &
b1 ,
b0 %
b0 '
b0 "
b0 $
#260000
b0 !
b0 #
b0 &
b0 ,
#265000
b1 !
b1 #
b1 &
b1 ,
b1111 %
b1111 '
b1111 "
b1111 $
#270000
b0 !
b0 #
b0 &
b0 ,
#275000
b1 !
b1 #
b1 &
b1 ,
b1110 %
b1110 '
b1110 "
b1110 $
#280000
b0 !
b0 #
b0 &
b0 ,
#285000
b1 !
b1 #
b1 &
b1 ,
b1101 %
b1101 '
b1101 "
b1101 $
#290000
b0 !
b0 #
b0 &
b0 ,
#295000
b1 !
b1 #
b1 &
b1 ,
b1100 %
b1100 '
b1100 "
b1100 $
#300000
b0 !
b0 #
b0 &
b0 ,
#305000
b1 !
b1 #
b1 &
b1 ,
b1011 %
b1011 '
b1011 "
b1011 $
#310000
b0 !
b0 #
b0 &
b0 ,
#315000
b1 !
b1 #
b1 &
b1 ,
b1010 %
b1010 '
b1010 "
b1010 $
#320000
b0 !
b0 #
b0 &
b0 ,
#325000
b1 !
b1 #
b1 &
b1 ,
b1001 %
b1001 '
b1001 "
b1001 $
#330000
b0 !
b0 #
b0 &
b0 ,
#335000
b1 !
b1 #
b1 &
b1 ,
b1000 %
b1000 '
b1000 "
b1000 $
#340000
b0 !
b0 #
b0 &
b0 ,
#345000
b1 !
b1 #
b1 &
b1 ,
b111 %
b111 '
b111 "
b111 $
#350000
b0 !
b0 #
b0 &
b0 ,
#355000
b1 !
b1 #
b1 &
b1 ,
b110 %
b110 '
b110 "
b110 $
#360000
b0 !
b0 #
b0 &
b0 ,
#365000
b1 !
b1 #
b1 &
b1 ,
b101 %
b101 '
b101 "
b101 $
#370000
b0 !
b0 #
b0 &
b0 ,
#375000
b1 !
b1 #
b1 &
b1 ,
b100 %
b100 '
b100 "
b100 $
#380000
b0 !
b0 #
b0 &
b0 ,
#385000
b1 !
b1 #
b1 &
b1 ,
b11 %
b11 '
b11 "
b11 $
#390000
b0 !
b0 #
b0 &
b0 ,
#395000
b1 !
b1 #
b1 &
b1 ,
b10 %
b10 '
b10 "
b10 $
#400000
b0 !
b0 #
b0 &
b0 ,
#405000
b1 !
b1 #
b1 &
b1 ,
b1 %
b1 '
b1 "
b1 $
#410000
b0 !
b0 #
b0 &
b0 ,
#415000
b1 !
b1 #
b1 &
b1 ,
b0 %
b0 '
b0 "
b0 $
#420000
b0 !
b0 #
b0 &
b0 ,
#425000
b1 !
b1 #
b1 &
b1 ,
b1111 %
b1111 '
b1111 "
b1111 $
#430000
b0 !
b0 #
b0 &
b0 ,
#435000
b1 !
b1 #
b1 &
b1 ,
b1110 %
b1110 '
b1110 "
b1110 $
#440000
b0 !
b0 #
b0 &
b0 ,
#445000
b1 !
b1 #
b1 &
b1 ,
b1101 %
b1101 '
b1101 "
b1101 $
#450000
b0 !
b0 #
b0 &
b0 ,
#455000
b1 !
b1 #
b1 &
b1 ,
b1100 %
b1100 '
b1100 "
b1100 $
#460000
b0 !
b0 #
b0 &
b0 ,
#465000
b1 !
b1 #
b1 &
b1 ,
b1011 %
b1011 '
b1011 "
b1011 $
#470000
b0 !
b0 #
b0 &
b0 ,
#475000
b1 !
b1 #
b1 &
b1 ,
b1010 %
b1010 '
b1010 "
b1010 $
#480000
b0 !
b0 #
b0 &
b0 ,
#485000
b1 !
b1 #
b1 &
b1 ,
b1001 %
b1001 '
b1001 "
b1001 $
#490000
b0 !
b0 #
b0 &
b0 ,
#495000
b1 !
b1 #
b1 &
b1 ,
b1000 %
b1000 '
b1000 "
b1000 $
#500000
b0 !
b0 #
b0 &
b0 ,
#505000
b1 !
b1 #
b1 &
b1 ,
b111 %
b111 '
b111 "
b111 $
#510000
b0 !
b0 #
b0 &
b0 ,
#515000
b1 !
b1 #
b1 &
b1 ,
b110 %
b110 '
b110 "
b110 $
#520000
b0 !
b0 #
b0 &
b0 ,
#525000
b1 !
b1 #
b1 &
b1 ,
b101 %
b101 '
b101 "
b101 $
#530000
b0 !
b0 #
b0 &
b0 ,
#535000
b1 !
b1 #
b1 &
b1 ,
b100 %
b100 '
b100 "
b100 $
#540000
b0 !
b0 #
b0 &
b0 ,
#545000
b1 !
b1 #
b1 &
b1 ,
b11 %
b11 '
b11 "
b11 $
#550000
b0 !
b0 #
b0 &
b0 ,
#555000
b1 !
b1 #
b1 &
b1 ,
b10 %
b10 '
b10 "
b10 $
#560000
b0 !
b0 #
b0 &
b0 ,
#565000
b1 !
b1 #
b1 &
b1 ,
b1 %
b1 '
b1 "
b1 $
#570000
b0 !
b0 #
b0 &
b0 ,
#575000
b1 !
b1 #
b1 &
b1 ,
b0 %
b0 '
b0 "
b0 $
#580000
b0 !
b0 #
b0 &
b0 ,
#585000
b1 !
b1 #
b1 &
b1 ,
b1111 %
b1111 '
b1111 "
b1111 $
#590000
b0 !
b0 #
b0 &
b0 ,
#595000
b1 !
b1 #
b1 &
b1 ,
b1110 %
b1110 '
b1110 "
b1110 $
#600000
b0 !
b0 #
b0 &
b0 ,
#605000
b1 !
b1 #
b1 &
b1 ,
b1101 %
b1101 '
b1101 "
b1101 $
#610000
b0 !
b0 #
b0 &
b0 ,
#615000
b1 !
b1 #
b1 &
b1 ,
b1100 %
b1100 '
b1100 "
b1100 $
#620000
b0 !
b0 #
b0 &
b0 ,
#625000
b1 !
b1 #
b1 &
b1 ,
b1011 %
b1011 '
b1011 "
b1011 $
#630000
b0 !
b0 #
b0 &
b0 ,
#635000
b1 !
b1 #
b1 &
b1 ,
b1010 %
b1010 '
b1010 "
b1010 $
#640000
b0 !
b0 #
b0 &
b0 ,
#645000
b1 !
b1 #
b1 &
b1 ,
b1001 %
b1001 '
b1001 "
b1001 $
#650000
b0 !
b0 #
b0 &
b0 ,
#655000
b1 !
b1 #
b1 &
b1 ,
b1000 %
b1000 '
b1000 "
b1000 $
#660000
b0 !
b0 #
b0 &
b0 ,
#665000
b1 !
b1 #
b1 &
b1 ,
b111 %
b111 '
b111 "
b111 $
#670000
b0 !
b0 #
b0 &
b0 ,
#675000
b1 !
b1 #
b1 &
b1 ,
b110 %
b110 '
b110 "
b110 $
#680000
b0 !
b0 #
b0 &
b0 ,
#685000
b1 !
b1 #
b1 &
b1 ,
b101 %
b101 '
b101 "
b101 $
#690000
b0 !
b0 #
b0 &
b0 ,
#695000
b1 !
b1 #
b1 &
b1 ,
b100 %
b100 '
b100 "
b100 $
#700000
b0 !
b0 #
b0 &
b0 ,
#705000
b1 !
b1 #
b1 &
b1 ,
b11 %
b11 '
b11 "
b11 $
#710000
b0 !
b0 #
b0 &
b0 ,
#715000
b1 !
b1 #
b1 &
b1 ,
b10 %
b10 '
b10 "
b10 $
#720000
b0 !
b0 #
b0 &
b0 ,
#725000
b1 !
b1 #
b1 &
b1 ,
b1 %
b1 '
b1 "
b1 $
#730000
b0 !
b0 #
b0 &
b0 ,
#735000
b1 !
b1 #
b1 &
b1 ,
b0 %
b0 '
b0 "
b0 $
#740000
b0 !
b0 #
b0 &
b0 ,
#745000
b1 !
b1 #
b1 &
b1 ,
b1111 %
b1111 '
b1111 "
b1111 $
#750000
b0 !
b0 #
b0 &
b0 ,
#755000
b1 !
b1 #
b1 &
b1 ,
b1110 %
b1110 '
b1110 "
b1110 $
#760000
b0 !
b0 #
b0 &
b0 ,
#765000
b1 !
b1 #
b1 &
b1 ,
b1101 %
b1101 '
b1101 "
b1101 $
#770000
b0 !
b0 #
b0 &
b0 ,
#775000
b1 !
b1 #
b1 &
b1 ,
b1100 %
b1100 '
b1100 "
b1100 $
#780000
b0 !
b0 #
b0 &
b0 ,
#785000
b1 !
b1 #
b1 &
b1 ,
b1011 %
b1011 '
b1011 "
b1011 $
#790000
b0 !
b0 #
b0 &
b0 ,
#795000
b1 !
b1 #
b1 &
b1 ,
b1010 %
b1010 '
b1010 "
b1010 $
#800000
b0 !
b0 #
b0 &
b0 ,
#805000
b1 !
b1 #
b1 &
b1 ,
b1001 %
b1001 '
b1001 "
b1001 $
#810000
b0 !
b0 #
b0 &
b0 ,
#815000
b1 !
b1 #
b1 &
b1 ,
b1000 %
b1000 '
b1000 "
b1000 $
#820000
b0 !
b0 #
b0 &
b0 ,
#825000
b1 !
b1 #
b1 &
b1 ,
b111 %
b111 '
b111 "
b111 $
#830000
b0 !
b0 #
b0 &
b0 ,
#835000
b1 !
b1 #
b1 &
b1 ,
b110 %
b110 '
b110 "
b110 $
#840000
b0 !
b0 #
b0 &
b0 ,
#845000
b1 !
b1 #
b1 &
b1 ,
b101 %
b101 '
b101 "
b101 $
#850000
b0 !
b0 #
b0 &
b0 ,
#855000
b1 !
b1 #
b1 &
b1 ,
b100 %
b100 '
b100 "
b100 $
#860000
b0 !
b0 #
b0 &
b0 ,
#865000
b1 !
b1 #
b1 &
b1 ,
b11 %
b11 '
b11 "
b11 $
#870000
b0 !
b0 #
b0 &
b0 ,
#875000
b1 !
b1 #
b1 &
b1 ,
b10 %
b10 '
b10 "
b10 $
#880000
b0 !
b0 #
b0 &
b0 ,
#885000
b1 !
b1 #
b1 &
b1 ,
b1 %
b1 '
b1 "
b1 $
#890000
b0 !
b0 #
b0 &
b0 ,
#895000
b1 !
b1 #
b1 &
b1 ,
b0 %
b0 '
b0 "
b0 $
#900000
b0 !
b0 #
b0 &
b0 ,
#905000
b1 !
b1 #
b1 &
b1 ,
b1111 %
b1111 '
b1111 "
b1111 $
#910000
b0 !
b0 #
b0 &
b0 ,
#915000
b1 !
b1 #
b1 &
b1 ,
b1110 %
b1110 '
b1110 "
b1110 $
#920000
b0 !
b0 #
b0 &
b0 ,
#925000
b1 !
b1 #
b1 &
b1 ,
b1101 %
b1101 '
b1101 "
b1101 $
#930000
b0 !
b0 #
b0 &
b0 ,
#935000
b1 !
b1 #
b1 &
b1 ,
b1100 %
b1100 '
b1100 "
b1100 $
#940000
b0 !
b0 #
b0 &
b0 ,
#945000
b1 !
b1 #
b1 &
b1 ,
b1011 %
b1011 '
b1011 "
b1011 $
#950000
b0 !
b0 #
b0 &
b0 ,
#955000
b1 !
b1 #
b1 &
b1 ,
b1010 %
b1010 '
b1010 "
b1010 $
#960000
b0 !
b0 #
b0 &
b0 ,
#965000
b1 !
b1 #
b1 &
b1 ,
b1001 %
b1001 '
b1001 "
b1001 $
#970000
b0 !
b0 #
b0 &
b0 ,
#975000
b1 !
b1 #
b1 &
b1 ,
b1000 %
b1000 '
b1000 "
b1000 $
#980000
b0 !
b0 #
b0 &
b0 ,
#985000
b1 !
b1 #
b1 &
b1 ,
b111 %
b111 '
b111 "
b111 $
#990000
b0 !
b0 #
b0 &
b0 ,
#995000
b1 !
b1 #
b1 &
b1 ,
b110 %
b110 '
b110 "
b110 $
#1000000
b0 !
b0 #
b0 &
b0 ,
